LatissimusDorsiYellowRange,GreaterOrEqual,0,Less,PLUS_INFINITY
LatissimusDorsiRedRange,GreaterOrEqual,0,Less,0
BicepsFemorisLeftYellowRange,GreaterOrEqual,0,Less,PLUS_INFINITY
BicepsFemorisLeftRedRange,GreaterOrEqual,0,Less,0
BicepsFemorisRightYellowRange,GreaterOrEqual,0,Less,PLUS_INFINITY
BicepsFemorisRightRedRange,GreaterOrEqual,0,Less,0
TensorFasciaeLataeLeftYellowRange,GreaterOrEqual,0,Less,PLUS_INFINITY
TensorFasciaeLataeLeftRedRange,GreaterOrEqual,0,Less,0
TensorFasciaeLataeRightYellowRange,GreaterOrEqual,0,Less,PLUS_INFINITY
TensorFasciaeLataeRightRedRange,GreaterOrEqual,0,Less,0
VastusLateralisLeftYellowRange,GreaterOrEqual,0,Less,PLUS_INFINITY
VastusLateralisLeftRedRange,GreaterOrEqual,0,Less,0
VastusLateralisRightYellowRange,GreaterOrEqual,0,Less,PLUS_INFINITY
VastusLateralisRightRedRange,GreaterOrEqual,0,Less,0
QuadricepsFemorisLeftYellowRange,GreaterOrEqual,0,Less,PLUS_INFINITY
QuadricepsFemorisLeftRedRange,GreaterOrEqual,0,Less,0
QuadricepsFemorisRightYellowRange,GreaterOrEqual,0,Less,PLUS_INFINITY
QuadricepsFemorisRightRedRange,GreaterOrEqual,0,Less,0
HipJointCapsuleLeftYellowRange,GreaterOrEqual,0,Less,PLUS_INFINITY
HipJointCapsuleLeftRedRange,GreaterOrEqual,0,Less,0
HipJointCapsuleRightYellowRange,GreaterOrEqual,0,Less,PLUS_INFINITY
HipJointCapsuleRightRedRange,GreaterOrEqual,0,Less,0
GluteusMediusLeftYellowRange,GreaterOrEqual,0,Less,PLUS_INFINITY
GluteusMediusLeftRedRange,GreaterOrEqual,0,Less,0
GluteusMediusRightYellowRange,GreaterOrEqual,0,Less,PLUS_INFINITY
GluteusMediusRightRedRange,GreaterOrEqual,0,Less,0
RectusAbdominisYellowRange,GreaterOrEqual,0,Less,PLUS_INFINITY
RectusAbdominisRedRange,GreaterOrEqual,0,Less,0
IliotibialTractLeftYellowRange,GreaterOrEqual,0,Less,PLUS_INFINITY
IliotibialTractLeftRedRange,GreaterOrEqual,0,Less,0
IliotibialTractRightYellowRange,GreaterOrEqual,0,Less,PLUS_INFINITY
IliotibialTractRightRedRange,GreaterOrEqual,0,Less,0
FibularisLeftYellowRange,GreaterOrEqual,0,Less,PLUS_INFINITY
FibularisLeftRedRange,GreaterOrEqual,0,Less,0
FibularisRightYellowRange,GreaterOrEqual,0,Less,PLUS_INFINITY
FibularisRightRedRange,GreaterOrEqual,0,Less,0
GastrocnemiusLeftYellowRange,GreaterOrEqual,0,Less,PLUS_INFINITY
GastrocnemiusLeftRedRange,GreaterOrEqual,0,Less,0
GastrocnemiusRightYellowRange,GreaterOrEqual,0,Less,PLUS_INFINITY
GastrocnemiusRightRedRange,GreaterOrEqual,0,Less,0
CuboidLeftYellowRange,GreaterOrEqual,0,Less,PLUS_INFINITY
CuboidLeftRedRange,GreaterOrEqual,0,Less,0
CuboidRightYellowRange,GreaterOrEqual,0,Less,PLUS_INFINITY
CuboidRightRedRange,GreaterOrEqual,0,Less,0
AdductorLeftYellowRange,GreaterOrEqual,0,Less,PLUS_INFINITY
AdductorLeftRedRange,GreaterOrEqual,0,Less,0
AdductorRightYellowRange,GreaterOrEqual,0,Less,PLUS_INFINITY
AdductorRightRedRange,GreaterOrEqual,0,Less,0
TrapeziusLeftYellowRange,GreaterOrEqual,0,Less,PLUS_INFINITY
TrapeziusLeftRedRange,GreaterOrEqual,0,Less,0
TrapeziusRightYellowRange,GreaterOrEqual,0,Less,PLUS_INFINITY
TrapeziusRightRedRange,GreaterOrEqual,0,Less,0
SternocleidomastoidYellowRange,GreaterOrEqual,0,Less,PLUS_INFINITY
SternocleidomastoidRedRange,GreaterOrEqual,0,Less,0
ZeroRange,GreaterOrEqual,0,LessOrEqual,0
GreaterThanZeroRange,Greater,0,Less,PLUS_INFINITY
